{
  "7415": {
    "name": "france_alsace_bas_rhin",
    "country_code": "FR-67"
  },
  "7403": {
    "name": "france_alsace_haut_rhin",
    "country_code": "FR-68"
  },
  "7375": {
    "name": "france_aquitaine_dordogne",
    "country_code": "FR-24"
  },
  "7405": {
    "name": "france_aquitaine_gironde",
    "country_code": "FR-33"
  },
  "7376": {
    "name": "france_aquitaine_landes",
    "country_code": "FR-40"
  },
  "1284995": {
    "name": "france_aquitaine_lot_et_garonne",
    "country_code": "FR-47"
  },
  "7450": {
    "name": "france_aquitaine_pyrenees_atlantiques",
    "country_code": "FR-64"
  },
  "1450201": {
    "name": "france_auvergne_allier",
    "country_code": "FR-03"
  },
  "7381": {
    "name": "france_auvergne_cantal",
    "country_code": "FR-15"
  },
  "7452": {
    "name": "france_auvergne_haute_loire",
    "country_code": "FR-43"
  },
  "7406": {
    "name": "france_auvergne_puy_de_dome",
    "country_code": "FR-63"
  },
  "7453": {
    "name": "france_basse_normandie_calvados",
    "country_code": "FR-14"
  },
  "7404": {
    "name": "france_basse_normandie_manche",
    "country_code": "FR-50"
  },
  "7419": {
    "name": "france_basse_normandie_orne",
    "country_code": "FR-61"
  },
  "7424": {
    "name": "france_bourgogne_cote_d_or",
    "country_code": "FR-21"
  },
  "7448": {
    "name": "france_bourgogne_nievre",
    "country_code": "FR-58"
  },
  "7397": {
    "name": "france_bourgogne_saone_et_loire",
    "country_code": "FR-71"
  },
  "7392": {
    "name": "france_bourgogne_yonne",
    "country_code": "FR-89"
  },
  "7398": {
    "name": "france_bretagne_cotes_d_armor",
    "country_code": "FR-22"
  },
  "7465": {
    "name": "france_bretagne_ille_et_vilaine",
    "country_code": "FR-35"
  },
  "102430": {
    "name": "france_bretagne_finistere",
    "country_code": "FR-29"
  },
  "7447": {
    "name": "france_bretagne_morbihan",
    "country_code": "FR-56"
  },
  "7456": {
    "name": "france_centre_cher",
    "country_code": "FR-18"
  },
  "7374": {
    "name": "france_centre_eure_et_loir",
    "country_code": "FR-28"
  },
  "7417": {
    "name": "france_centre_indre",
    "country_code": "FR-36"
  },
  "7408": {
    "name": "france_centre_indre_et_loire",
    "country_code": "FR-37"
  },
  "7399": {
    "name": "france_centre_loir_et_cher",
    "country_code": "FR-41"
  },
  "7440": {
    "name": "france_centre_loiret",
    "country_code": "FR-45"
  },
  "7395": {
    "name": "france_champagne_ardenne_ardennes",
    "country_code": "FR-08"
  },
  "7441": {
    "name": "france_champagne_ardenne_aube",
    "country_code": "FR-10"
  },
  "7379": {
    "name": "france_champagne_ardenne_marne",
    "country_code": "FR-51"
  },
  "7396": {
    "name": "france_champagne_ardenne_haute_marne",
    "country_code": "FR-52"
  },
  "76932": {
    "name": "france_corse_corse_du_sud",
    "country_code": "FR-2A"
  },
  "76931": {
    "name": "france_corse_haute_corse",
    "country_code": "FR-2B"
  },
  "7462": {
    "name": "france_franche_comte_doubs",
    "country_code": "FR-25"
  },
  "7460": {
    "name": "france_franche_comte_jura",
    "country_code": "FR-39"
  },
  "7423": {
    "name": "france_franche_comte_haute_saone",
    "country_code": "FR-70"
  },
  "7410": {
    "name": "france_franche_comte_territoire_de_belfort",
    "country_code": "FR-90"
  },
  "7435": {
    "name": "france_haute_normandie_eure",
    "country_code": "FR-27"
  },
  "7426": {
    "name": "france_haute_normandie_seine_maritime",
    "country_code": "FR-76"
  },
  "71525": {
    "name": "france_ile_de_france_paris",
    "country_code": "FR-75"
  },
  "7449": {
    "name": "france_ile_de_france_hauts_de_seine",
    "country_code": "FR-92"
  },
  "7389": {
    "name": "france_ile_de_france_seine_saint_denis",
    "country_code": "FR-93"
  },
  "7458": {
    "name": "france_ile_de_france_val_de_marne",
    "country_code": "FR-94"
  },
  "7401": {
    "name": "france_ile_de_france_essonne",
    "country_code": "FR-91"
  },
  "7383": {
    "name": "france_ile_de_france_seine_et_marne",
    "country_code": "FR-77"
  },
  "7433": {
    "name": "france_ile_de_france_val_d_oise",
    "country_code": "FR-95"
  },
  "7457": {
    "name": "france_ile_de_france_yvelines",
    "country_code": "FR-78"
  },
  "7446": {
    "name": "france_languedoc_roussillon_aude",
    "country_code": "FR-11"
  },
  "7461": {
    "name": "france_languedoc_roussillon_gard",
    "country_code": "FR-30"
  },
  "7429": {
    "name": "france_languedoc_roussillon_herault",
    "country_code": "FR-34"
  },
  "7421": {
    "name": "france_languedoc_roussillon_lozere",
    "country_code": "FR-48"
  },
  "7466": {
    "name": "france_languedoc_roussillon_pyrenees_orientales",
    "country_code": "FR-66"
  },
  "7464": {
    "name": "france_limousin_correze",
    "country_code": "FR-19"
  },
  "7459": {
    "name": "france_limousin_creuse",
    "country_code": "FR-23"
  },
  "7418": {
    "name": "france_limousin_haute_vienne",
    "country_code": "FR-87"
  },
  "51856": {
    "name": "france_lorraine_meurthe_et_moselle",
    "country_code": "FR-54"
  },
  "7382": {
    "name": "france_lorraine_meuse",
    "country_code": "FR-55"
  },
  "51854": {
    "name": "france_lorraine_moselle",
    "country_code": "FR-57"
  },
  "7384": {
    "name": "france_lorraine_vosges",
    "country_code": "FR-88"
  },
  "7439": {
    "name": "france_midi_pyrenees_ariege",
    "country_code": "FR-09"
  },
  "7451": {
    "name": "france_midi_pyrenees_aveyron",
    "country_code": "FR-12"
  },
  "7413": {
    "name": "france_midi_pyrenees_haute_garonne",
    "country_code": "FR-31"
  },
  "7422": {
    "name": "france_midi_pyrenees_gers",
    "country_code": "FR-32"
  },
  "7454": {
    "name": "france_midi_pyrenees_lot",
    "country_code": "FR-46"
  },
  "7467": {
    "name": "france_midi_pyrenees_hautes_pyrenees",
    "country_code": "FR-65"
  },
  "7442": {
    "name": "france_midi_pyrenees_tarn",
    "country_code": "FR-81"
  },
  "7388": {
    "name": "france_midi_pyrenees_tarn_et_garonne",
    "country_code": "FR-82"
  },
  "7400": {
    "name": "france_nord_pas_de_calais_nord",
    "country_code": "FR-59"
  },
  "7394": {
    "name": "france_nord_pas_de_calais_pas_de_calais",
    "country_code": "FR-62"
  },
  "7432": {
    "name": "france_pays_de_la_loire_loire_atlantique",
    "country_code": "FR-44"
  },
  "7409": {
    "name": "france_pays_de_la_loire_maine_et_loire",
    "country_code": "FR-49"
  },
  "7438": {
    "name": "france_pays_de_la_loire_mayenne",
    "country_code": "FR-53"
  },
  "7443": {
    "name": "france_pays_de_la_loire_sarthe",
    "country_code": "FR-72"
  },
  "7402": {
    "name": "france_pays_de_la_loire_vendee",
    "country_code": "FR-85"
  },
  "7411": {
    "name": "france_picardie_aisne",
    "country_code": "FR-02"
  },
  "7427": {
    "name": "france_picardie_oise",
    "country_code": "FR-60"
  },
  "7463": {
    "name": "france_picardie_somme",
    "country_code": "FR-80"
  },
  "7428": {
    "name": "france_poitou_charentes_charente",
    "country_code": "FR-16"
  },
  "7431": {
    "name": "france_poitou_charentes_charente_maritime",
    "country_code": "FR-17"
  },
  "7455": {
    "name": "france_poitou_charentes_deux_sevres",
    "country_code": "FR-79"
  },
  "7377": {
    "name": "france_poitou_charentes_vienne",
    "country_code": "FR-86"
  },
  "7380": {
    "name": "france_provence_alpes_cote_d_azur_alpes_de_haute_provence",
    "country_code": "FR-04"
  },
  "7436": {
    "name": "france_provence_alpes_cote_d_azur_hautes_alpes",
    "country_code": "FR-05"
  },
  "7385": {
    "name": "france_provence_alpes_cote_d_azur_alpes_maritimes",
    "country_code": "FR-06"
  },
  "7393": {
    "name": "france_provence_alpes_cote_d_azur_bouches_du_rhone",
    "country_code": "FR-13"
  },
  "7390": {
    "name": "france_provence_alpes_cote_d_azur_var",
    "country_code": "FR-83"
  },
  "7445": {
    "name": "france_provence_alpes_cote_d_azur_vaucluse",
    "country_code": "FR-84"
  },
  "7387": {
    "name": "france_rhone_alpes_ain",
    "country_code": "FR-01"
  },
  "7430": {
    "name": "france_rhone_alpes_ardeche",
    "country_code": "FR-07"
  },
  "7434": {
    "name": "france_rhone_alpes_drome",
    "country_code": "FR-26"
  },
  "7437": {
    "name": "france_rhone_alpes_isere",
    "country_code": "FR-38"
  },
  "7420": {
    "name": "france_rhone_alpes_loire",
    "country_code": "FR-42"
  },
  "7378": {
    "name": "france_rhone_alpes_rhone",
    "country_code": "FR-69"
  },
  "7425": {
    "name": "france_rhone_alpes_savoie",
    "country_code": "FR-73"
  },
  "7407": {
    "name": "france_rhone_alpes_haute_savoie",
    "country_code": "FR-74"
  },
  "1401835": {
    "name": "france_guadeloupe",
    "country_code": "FR-GP"
  },
  "1260551": {
    "name": "france_guyane",
    "country_code": "FR-GF"
  },
  "1891495": {
    "name": "france_martinique",
    "country_code": "FR-MQ"
  },
  "1259885": {
    "name": "france_mayotte",
    "country_code": "FR-YT"
  },
  "1785276": {
    "name": "france_reunion",
    "country_code": "FR-RE"
  },
  "537967": {
    "name": "france_saintbarthelemy",
    "country_code": "FR-BL"
  },
  "1891583": {
    "name": "france_saintmartin",
    "country_code": "FR-MF"
  },
  "233377": {
    "name": "france_saintpierreetmiquelon",
    "country_code": "FR-PM"
  },
  "290162": {
    "name": "france_wallisetfutuna",
    "country_code": "FR-WF"
  },
  "3412620": {
    "name": "france_polynesie",
    "country_code": "FR-PF"
  },
  "3407643": {
    "name": "france_nouvellecaledonie",
    "country_code": "NC"
  },
  "6063103": {
    "name": "france_taaf",
    "country_code": "TF"
  },
  "1403916": {
    "name": "france_local_db",
    "country_code": "FR"
  },
  "53292": {
    "name": "albania",
    "country_code": "AL"
  },
  "9407": {
    "name": "andorra",
    "country_code": "AD"
  },
  "59065": {
    "name": "belarus",
    "country_code": "BY"
  },
  "2528142": {
    "name": "bosnia_herzegovina",
    "country_code": "BA"
  },
  "186382": {
    "name": "bulgaria",
    "country_code": "BG"
  },
  "214885": {
    "name": "croatia",
    "country_code": "HR"
  },
  "79510": {
    "name": "estonia",
    "country_code": "EE"
  },
  "307787": {
    "name": "cyprus",
    "country_code": "CY"
  },
  "52939": {
    "name": "faroe_islands",
    "country_code": "FO"
  },
  "192307": {
    "name": "greece",
    "country_code": "GR"
  },
  "270009": {
    "name": "guernesey",
    "country_code": "GG"
  },
  "21335": {
    "name": "hungary",
    "country_code": "HU"
  },
  "62273": {
    "name": "ireland",
    "country_code": "IE"
  },
  "62269": {
    "name": "isle_of_man",
    "country_code": "IM"
  },
  "367988": {
    "name": "jersey",
    "country_code": "JE"
  },
  "2088990": {
    "name": "kosovo",
    "country_code": "XK"
  },
  "1155955": {
    "name": "liechtenstein",
    "country_code": "LI"
  },
  "72596": {
    "name": "lithuania",
    "country_code": "LT"
  },
  "72594": {
    "name": "latvia",
    "country_code": "LV"
  },
  "2171347": {
    "name": "luxembourg",
    "country_code": "LU"
  },
  "365307": {
    "name": "malta",
    "country_code": "MT"
  },
  "53293": {
    "name": "macedonia",
    "country_code": "MK"
  },
  "58974": {
    "name": "moldova",
    "country_code": "MD"
  },
  "1124039": {
    "name": "monaco",
    "country_code": "MC"
  },
  "53296": {
    "name": "montenegro",
    "country_code": "ME"
  },
  "90689": {
    "name": "romania",
    "country_code": "RO"
  },
  "54624": {
    "name": "san_marino",
    "country_code": "SM"
  },
  "1741311": {
    "name": "serbia",
    "country_code": "RS"
  },
  "218657": {
    "name": "slovenia",
    "country_code": "SI"
  },
  "174737": {
    "name": "turkey",
    "country_code": "TR"
  },
  "36989": {
    "name": "vatican_city",
    "country_code": "VA"
  },
  "3263728": {
    "name": "united_kingdom_akrotiri_and_dhekelia",
    "country_code": "GB"
  },
  "1278736": {
    "name": "united_kingdom_gibraltar",
    "country_code": "GI"
  },
  "156393": {
    "name": "united_kingdom_northern_ireland",
    "country_code": "GB-NIR"
  },
  "58437": {
    "name": "united_kingdom_wales",
    "country_code": "GB-WLS"
  },
  "58446": {
    "name": "united_kingdom_scotland",
    "country_code": "GB-SCT"
  },
  "299133": {
    "name": "iceland",
    "country_code": "IS"
  },
  "50046": {
    "name": "denmark",
    "country_code": "DK"
  },
  "54094": {
    "name": "belgium_brussels_capital_region",
    "country_code": "BE-BRU"
  },
  "53134": {
    "name": "belgium_flanders",
    "country_code": "BE-VLG"
  },
  "2620920": {
    "name": "belgium_wallonia_french_community",
    "country_code": "BE-WAL"
  },
  "2425209": {
    "name": "belgium_wallonia_german_community",
    "country_code": "BE-WAL"
  },
  "54391": {
    "name": "sweden_stockholm",
    "country_code": "SE-AB"
  },
  "52825": {
    "name": "sweden_vasterbotten",
    "country_code": "SE-AC"
  },
  "52824": {
    "name": "sweden_norrbotten",
    "country_code": "SE-BD"
  },
  "54220": {
    "name": "sweden_uppsala",
    "country_code": "SE-C"
  },
  "54386": {
    "name": "sweden_sodermanland",
    "country_code": "SE-D"
  },
  "940675": {
    "name": "sweden_ostergotland",
    "country_code": "SE-E"
  },
  "54374": {
    "name": "sweden_jonkoping",
    "country_code": "SE-F"
  },
  "54412": {
    "name": "sweden_kronoberg",
    "country_code": "SE-G"
  },
  "54417": {
    "name": "sweden_kalmar",
    "country_code": "SE-H"
  },
  "941530": {
    "name": "sweden_gotland",
    "country_code": "SE-I"
  },
  "54413": {
    "name": "sweden_blekinge",
    "country_code": "SE-K"
  },
  "54409": {
    "name": "sweden_skane",
    "country_code": "SE-M"
  },
  "54403": {
    "name": "sweden_halland",
    "country_code": "SE-N"
  },
  "54367": {
    "name": "sweden_vastra_gotaland",
    "country_code": "SE-O"
  },
  "54223": {
    "name": "sweden_varmland",
    "country_code": "SE-S"
  },
  "54222": {
    "name": "sweden_orebro",
    "country_code": "SE-T"
  },
  "54221": {
    "name": "sweden_vastmanland",
    "country_code": "SE-U"
  },
  "52834": {
    "name": "sweden_dalarna",
    "country_code": "SE-W"
  },
  "52832": {
    "name": "sweden_gavleborg",
    "country_code": "SE-X"
  },
  "52827": {
    "name": "sweden_vasternorrland",
    "country_code": "SE-Y"
  },
  "52826": {
    "name": "sweden_jamtland",
    "country_code": "SE-Z"
  },
  "1686359": {
    "name": "switzerland_aargau",
    "country_code": "CH-AG"
  },
  "1686649": {
    "name": "switzerland_appenzell_ausserrhoden",
    "country_code": "CH-AR"
  },
  "1686666": {
    "name": "switzerland_appenzell_innerrhoden",
    "country_code": "CH-AI"
  },
  "1686366": {
    "name": "switzerland_basel_landschaft",
    "country_code": "CH-BL"
  },
  "1699639": {
    "name": "switzerland_basel_stadt",
    "country_code": "CH-BS"
  },
  "1686344": {
    "name": "switzerland_bern",
    "country_code": "CH-BE"
  },
  "1698314": {
    "name": "switzerland_fribourg",
    "country_code": "CH-FR"
  },
  "1702419": {
    "name": "switzerland_geneva",
    "country_code": "CH-GE"
  },
  "1685673": {
    "name": "switzerland_glarus",
    "country_code": "CH-GL"
  },
  "1686631": {
    "name": "switzerland_grisons",
    "country_code": "CH-GR"
  },
  "1697347": {
    "name": "switzerland_jura",
    "country_code": "CH-JU"
  },
  "1685677": {
    "name": "switzerland_lucerne",
    "country_code": "CH-LU"
  },
  "1702420": {
    "name": "switzerland_neuchatel",
    "country_code": "CH-NE"
  },
  "1686449": {
    "name": "switzerland_nidwalden",
    "country_code": "CH-NW"
  },
  "1686448": {
    "name": "switzerland_obwalden",
    "country_code": "CH-OW"
  },
  "1696112": {
    "name": "switzerland_schaffhausen",
    "country_code": "CH-SH"
  },
  "1688583": {
    "name": "switzerland_schwyz",
    "country_code": "CH-SZ"
  },
  "1701133": {
    "name": "switzerland_solothurn",
    "country_code": "CH-SO"
  },
  "1687006": {
    "name": "switzerland_saint_gallen",
    "country_code": "CH-SG"
  },
  "1693811": {
    "name": "switzerland_thurgau",
    "country_code": "CH-TG"
  },
  "1687730": {
    "name": "switzerland_ticino",
    "country_code": "CH-TI"
  },
  "1693971": {
    "name": "switzerland_uri",
    "country_code": "CH-UR"
  },
  "1686699": {
    "name": "switzerland_valais",
    "country_code": "CH-VS"
  },
  "1702421": {
    "name": "switzerland_vaud",
    "country_code": "CH-VD"
  },
  "1686447": {
    "name": "switzerland_zug",
    "country_code": "CH-ZG"
  },
  "1690227": {
    "name": "switzerland_zurich",
    "country_code": "CH-ZH"
  },
  "2541341": {
    "name": "finland_lapland",
    "country_code": "FI-10"
  },
  "1724360": {
    "name": "finland_north_ostrobothnia",
    "country_code": "FI-14"
  },
  "1997164": {
    "name": "finland_kainuu",
    "country_code": "FI-05"
  },
  "1999428": {
    "name": "finland_north_karelia",
    "country_code": "FI-13"
  },
  "918898": {
    "name": "finland_north_savo",
    "country_code": "FI-15"
  },
  "918897": {
    "name": "finland_south_savo",
    "country_code": "FI-04"
  },
  "2067231": {
    "name": "finland_south_karelia",
    "country_code": "FI-02"
  },
  "1701740": {
    "name": "finland_central_finland",
    "country_code": "FI-08"
  },
  "1702263": {
    "name": "finland_south_ostrobothnia",
    "country_code": "FI-03"
  },
  "2000320": {
    "name": "finland_ostrobothnia",
    "country_code": "FI-12"
  },
  "1702330": {
    "name": "finland_central_ostrobothnia",
    "country_code": "FI-07"
  },
  "1701741": {
    "name": "finland_pirkanmaa",
    "country_code": "FI-11"
  },
  "2000361": {
    "name": "finland_satakunta",
    "country_code": "FI-17"
  },
  "1703362": {
    "name": "finland_paijat_hame",
    "country_code": "FI-16"
  },
  "1473990": {
    "name": "finland_kanta_hame",
    "country_code": "FI-06"
  },
  "2102313": {
    "name": "finland_kymenlaakso",
    "country_code": "FI-09"
  },
  "37355": {
    "name": "finland_uusimaa",
    "country_code": "FI-19"
  },
  "38092": {
    "name": "finland_southwest_finland",
    "country_code": "FI-19"
  },
  "1650407": {
    "name": "finland_aland",
    "country_code": "AX"
  },
  "295480": {
    "name": "portugal",
    "country_code": "PT"
  },
  "6451096": {
    "name": "portugal_azores",
    "country_code": "PT"
  },
  "6451097": {
    "name": "portugal_madeira",
    "country_code": "PT"
  },
  "91278": {
    "name": "ukraine_cherkasy_oblast",
    "country_code": "UA-71"
  },
  "71249": {
    "name": "ukraine_chernihiv_oblast",
    "country_code": "UA-74"
  },
  "72526": {
    "name": "ukraine_chernivtsi_oblast",
    "country_code": "UA-77"
  },
  "101746": {
    "name": "ukraine_dnipropetrovsk_oblast",
    "country_code": "UA-12"
  },
  "71973": {
    "name": "ukraine_donetsk_oblast",
    "country_code": "UA-14"
  },
  "72488": {
    "name": "ukraine_ivano_frankivsk_oblast",
    "country_code": "UA-26"
  },
  "71254": {
    "name": "ukraine_kharkiv_oblast",
    "country_code": "UA-63"
  },
  "71022": {
    "name": "ukraine_kherson_oblast",
    "country_code": "UA-65"
  },
  "90742": {
    "name": "ukraine_khmelnytskyi_oblast",
    "country_code": "UA-68"
  },
  "71248": {
    "name": "ukraine_kiev_oblast",
    "country_code": "UA-32"
  },
  "421866": {
    "name": "ukraine_kiev",
    "country_code": "UA-30"
  },
  "101859": {
    "name": "ukraine_kirovohrad_oblast",
    "country_code": "UA-35"
  },
  "71971": {
    "name": "ukraine_luhansk_oblast",
    "country_code": "UA-09"
  },
  "72380": {
    "name": "ukraine_lviv_oblast",
    "country_code": "UA-46"
  },
  "72635": {
    "name": "ukraine_mykolaiv_oblast",
    "country_code": "UA-48"
  },
  "72634": {
    "name": "ukraine_odessa_oblast",
    "country_code": "UA-51"
  },
  "91294": {
    "name": "ukraine_poltava_oblast",
    "country_code": "UA-53"
  },
  "71236": {
    "name": "ukraine_rivne_oblast",
    "country_code": "UA-56"
  },
  "71250": {
    "name": "ukraine_sumy_oblast",
    "country_code": "UA-59"
  },
  "72525": {
    "name": "ukraine_ternopil_oblast",
    "country_code": "UA-61"
  },
  "90726": {
    "name": "ukraine_vinnytsia_oblast",
    "country_code": "UA-05"
  },
  "71064": {
    "name": "ukraine_volyn_oblast",
    "country_code": "UA-07"
  },
  "72489": {
    "name": "ukraine_zakarpattia_oblast",
    "country_code": "UA-21"
  },
  "71980": {
    "name": "ukraine_zaporizhia_oblast",
    "country_code": "UA-23"
  },
  "71245": {
    "name": "ukraine_zhytomyr_oblast",
    "country_code": "UA-18"
  },
  "408105": {
    "name": "norway_nordland",
    "country_code": "NO-18"
  },
  "407717": {
    "name": "norway_troms",
    "country_code": "NO-19"
  },
  "406389": {
    "name": "norway_finnmark",
    "country_code": "NO-20"
  },
  "406567": {
    "name": "norway_troendelag",
    "country_code": "NO-23"
  },
  "406868": {
    "name": "norway_moere_og_romsdal",
    "country_code": "NO-15"
  },
  "407787": {
    "name": "norway_sogn_og_fjordane",
    "country_code": "NO-14"
  },
  "404144": {
    "name": "norway_hordaland",
    "country_code": "NO-12"
  },
  "405836": {
    "name": "norway_rogaland",
    "country_code": "NO-11"
  },
  "406015": {
    "name": "norway_aust_agder",
    "country_code": "NO-09"
  },
  "405929": {
    "name": "norway_vest_agder",
    "country_code": "NO-10"
  },
  "406091": {
    "name": "norway_oslo",
    "country_code": "NO-03"
  },
  "406106": {
    "name": "norway_akershus",
    "country_code": "NO-02"
  },
  "406060": {
    "name": "norway_oestfold",
    "country_code": "NO-01"
  },
  "404589": {
    "name": "norway_vestfold",
    "country_code": "NO-07"
  },
  "405156": {
    "name": "norway_telemark",
    "country_code": "NO-08"
  },
  "412297": {
    "name": "norway_buskerud",
    "country_code": "NO-06"
  },
  "412377": {
    "name": "norway_oppland",
    "country_code": "NO-05"
  },
  "412436": {
    "name": "norway_hedmark",
    "country_code": "NO-04"
  },
  "1337397": {
    "name": "norway_svalbard",
    "country_code": "SJ"
  },
  "1337126": {
    "name": "norway_jan_mayen",
    "country_code": "SJ"
  },
  "2184073": {
    "name": "greenland",
    "country_code": "GL"
  },
  "1993208": {
    "name": "united_kingdom_bermuda",
    "country_code": "BM"
  },
  "2610002": {
    "name": "mexico_aguascalientes",
    "country_code": "MX-AGU"
  },
  "2589601": {
    "name": "mexico_baja_california",
    "country_code": "MX-BCN"
  },
  "2589611": {
    "name": "mexico_baja_california_sur",
    "country_code": "MX-BCS"
  },
  "2568834": {
    "name": "mexico_campeche",
    "country_code": "MX-CAM"
  },
  "2556679": {
    "name": "mexico_chiapas",
    "country_code": "MX-CHP"
  },
  "1673425": {
    "name": "mexico_chihuahua",
    "country_code": "MX-CHH"
  },
  "1661524": {
    "name": "mexico_coahuila",
    "country_code": "MX-COA"
  },
  "2340912": {
    "name": "mexico_colima",
    "country_code": "MX-COL"
  },
  "2399740": {
    "name": "mexico_durango",
    "country_code": "MX-DUR"
  },
  "2340909": {
    "name": "mexico_guanajuato",
    "country_code": "MX-GUA"
  },
  "2439316": {
    "name": "mexico_guerrero",
    "country_code": "MX-GRO"
  },
  "1376490": {
    "name": "mexico_hidalgo",
    "country_code": "MX-HID"
  },
  "2340910": {
    "name": "mexico_jalisco",
    "country_code": "MX-JAL"
  },
  "1376330": {
    "name": "mexico_mexico_city",
    "country_code": "MX-CMX"
  },
  "2340636": {
    "name": "mexico_michoacan",
    "country_code": "MX-MIC"
  },
  "1376332": {
    "name": "mexico_morelos",
    "country_code": "MX-MOR"
  },
  "7695827": {
    "name": "mexico_nayarit",
    "country_code": "MX-NAY"
  },
  "1661523": {
    "name": "mexico_nuevo_leon",
    "country_code": "MX-NLE"
  },
  "2529822": {
    "name": "mexico_oaxaca",
    "country_code": "MX-OAX"
  },
  "1376491": {
    "name": "mexico_puebla",
    "country_code": "MX-PUE"
  },
  "2340903": {
    "name": "mexico_queretaro",
    "country_code": "MX-QUE"
  },
  "2614434": {
    "name": "mexico_quintana_roo",
    "country_code": "MX-ROO"
  },
  "4086617": {
    "name": "mexico_san_luis_potosi",
    "country_code": "MX-SLP"
  },
  "2455086": {
    "name": "mexico_sinaloa",
    "country_code": "MX-SIN"
  },
  "1673426": {
    "name": "mexico_sonora",
    "country_code": "MX-SON"
  },
  "1376489": {
    "name": "mexico_state_of_mexico",
    "country_code": "MX-MEX"
  },
  "2556680": {
    "name": "mexico_tabasco",
    "country_code": "MX-TAB"
  },
  "2415518": {
    "name": "mexico_tamaulipas",
    "country_code": "MX-TAM"
  },
  "1375274": {
    "name": "mexico_tlaxcala",
    "country_code": "MX-TLA"
  },
  "2415761": {
    "name": "mexico_veracruz",
    "country_code": "MX-VER"
  },
  "2614435": {
    "name": "mexico_yucatan",
    "country_code": "MX-YUC"
  },
  "2399704": {
    "name": "mexico_zacatecas",
    "country_code": "MX-ZAC"
  },
  "161950": {
    "name": "usa_alabama",
    "country_code": "US-AL"
  },
  "1116270": {
    "name": "usa_alaska",
    "country_code": "US-AK"
  },
  "162018": {
    "name": "usa_arizona",
    "country_code": "US-AZ"
  },
  "161646": {
    "name": "usa_arkansas",
    "country_code": "US-AR"
  },
  "396499": {
    "name": "usa_california_alameda",
    "country_code": "US-CA-ALA"
  },
  "396497": {
    "name": "usa_california_alpine",
    "country_code": "US-CA-ALP"
  },
  "396490": {
    "name": "usa_california_amador",
    "country_code": "US-CA-AMA"
  },
  "396508": {
    "name": "usa_california_butte",
    "country_code": "US-CA-BUT"
  },
  "396470": {
    "name": "usa_california_calaveras",
    "country_code": "US-CA-CAL"
  },
  "396476": {
    "name": "usa_california_colusa",
    "country_code": "US-CA-COL"
  },
  "396462": {
    "name": "usa_california_contra_costa",
    "country_code": "US-CA-CON"
  },
  "396503": {
    "name": "usa_california_del_norte",
    "country_code": "US-CA-DEL"
  },
  "396481": {
    "name": "usa_california_el_dorado",
    "country_code": "US-CA-ELD"
  },
  "396492": {
    "name": "usa_california_fresno",
    "country_code": "US-CA-FRE"
  },
  "396493": {
    "name": "usa_california_glenn",
    "country_code": "US-CA-GLE"
  },
  "396458": {
    "name": "usa_california_humboldt",
    "country_code": "US-CA-HUM"
  },
  "396515": {
    "name": "usa_california_imperial",
    "country_code": "US-CA-IMP"
  },
  "396491": {
    "name": "usa_california_inyo",
    "country_code": "US-CA-INY"
  },
  "396494": {
    "name": "usa_california_kern",
    "country_code": "US-CA-KER"
  },
  "396480": {
    "name": "usa_california_kings",
    "country_code": "US-CA-KIN"
  },
  "396502": {
    "name": "usa_california_lake",
    "country_code": "US-CA-LAK"
  },
  "396469": {
    "name": "usa_california_lassen",
    "country_code": "US-CA-LAS"
  },
  "396479": {
    "name": "usa_california_los_angeles",
    "country_code": "US-CA-LOS"
  },
  "396488": {
    "name": "usa_california_madera",
    "country_code": "US-CA-MAD"
  },
  "396461": {
    "name": "usa_california_marin",
    "country_code": "US-CA-MRN"
  },
  "396465": {
    "name": "usa_california_mariposa",
    "country_code": "US-CA-MP"
  },
  "396489": {
    "name": "usa_california_mendocino",
    "country_code": "US-CA-MEN"
  },
  "396504": {
    "name": "usa_california_merced",
    "country_code": "US-CA-MER"
  },
  "396506": {
    "name": "usa_california_modoc",
    "country_code": "US-CA-MOD"
  },
  "396472": {
    "name": "usa_california_mono",
    "country_code": "US-CA-MNO"
  },
  "396485": {
    "name": "usa_california_monterey",
    "country_code": "US-CA-MNT"
  },
  "396463": {
    "name": "usa_california_napa",
    "country_code": "US-CA-NAP"
  },
  "396464": {
    "name": "usa_california_nevada",
    "country_code": "US-CA-NEV"
  },
  "396466": {
    "name": "usa_california_orange",
    "country_code": "US-CA-ORA"
  },
  "396511": {
    "name": "usa_california_placer",
    "country_code": "US-CA-PLA"
  },
  "396477": {
    "name": "usa_california_plumas",
    "country_code": "US-CA-PLU"
  },
  "396495": {
    "name": "usa_california_riverside",
    "country_code": "US-CA-RIV"
  },
  "396460": {
    "name": "usa_california_sacramento",
    "country_code": "US-CA-SAC"
  },
  "396500": {
    "name": "usa_california_san_benito",
    "country_code": "US-CA-SBT"
  },
  "396509": {
    "name": "usa_california_san_bernardino",
    "country_code": "US-CA-SBD"
  },
  "396482": {
    "name": "usa_california_san_diego",
    "country_code": "US-CA-SDG"
  },
  "396487": {
    "name": "usa_california_san_francisco",
    "country_code": "US-CA-SFO"
  },
  "396467": {
    "name": "usa_california_san_joaquin",
    "country_code": "US-CA-SJQ"
  },
  "396496": {
    "name": "usa_california_san_luis_obispo",
    "country_code": "US-CA-SLO"
  },
  "396498": {
    "name": "usa_california_san_mateo",
    "country_code": "US-CA-SMT"
  },
  "396510": {
    "name": "usa_california_santa_barbara",
    "country_code": "US-CA-SBA"
  },
  "396501": {
    "name": "usa_california_santa_clara",
    "country_code": "US-CA-SCL"
  },
  "7870163": {
    "name": "usa_california_santa_cruz",
    "country_code": "US-CA-SCZ"
  },
  "396512": {
    "name": "usa_california_shasta",
    "country_code": "US-CA-SHA"
  },
  "396474": {
    "name": "usa_california_sierra",
    "country_code": "US-CA-SIE"
  },
  "396483": {
    "name": "usa_california_siskiyou",
    "country_code": "US-CA-SIS"
  },
  "396513": {
    "name": "usa_california_solano",
    "country_code": "US-CA-SOL"
  },
  "396468": {
    "name": "usa_california_sonoma",
    "country_code": "US-CA-SON"
  },
  "396514": {
    "name": "usa_california_stanislaus",
    "country_code": "US-CA-STA"
  },
  "396478": {
    "name": "usa_california_sutter",
    "country_code": "US-CA-SUT"
  },
  "396486": {
    "name": "usa_california_tehama",
    "country_code": "US-CA-TEH"
  },
  "396484": {
    "name": "usa_california_trinity",
    "country_code": "US-CA-TRI"
  },
  "396459": {
    "name": "usa_california_tulare",
    "country_code": "US-CA-TUL"
  },
  "396471": {
    "name": "usa_california_tuolumne",
    "country_code": "US-CA-TUO"
  },
  "396505": {
    "name": "usa_california_ventura",
    "country_code": "US-CA-VEN"
  },
  "396507": {
    "name": "usa_california_yolo",
    "country_code": "US-CA-YOL"
  },
  "396475": {
    "name": "usa_california_yuba",
    "country_code": "US-CA-YUB"
  },
  "161961": {
    "name": "usa_colorado",
    "country_code": "US-CO"
  },
  "165794": {
    "name": "usa_connecticut",
    "country_code": "US-CT"
  },
  "162110": {
    "name": "usa_delaware",
    "country_code": "US-DE"
  },
  "162069": {
    "name": "usa_district_of_columbia",
    "country_code": "US-DC"
  },
  "162050": {
    "name": "usa_florida",
    "country_code": "US-FL"
  },
  "161957": {
    "name": "usa_georgia",
    "country_code": "US-GA"
  },
  "166563": {
    "name": "usa_hawaii",
    "country_code": "US-HI"
  },
  "162116": {
    "name": "usa_idaho",
    "country_code": "US-ID"
  },
  "122586": {
    "name": "usa_illinois",
    "country_code": "US-IL"
  },
  "161816": {
    "name": "usa_indiana",
    "country_code": "US-IN"
  },
  "161650": {
    "name": "usa_iowa",
    "country_code": "US-IA"
  },
  "161644": {
    "name": "usa_kansas",
    "country_code": "US-KS"
  },
  "161655": {
    "name": "usa_kentucky",
    "country_code": "US-KY"
  },
  "224922": {
    "name": "usa_louisiana",
    "country_code": "US-LA"
  },
  "63512": {
    "name": "usa_maine",
    "country_code": "US-ME"
  },
  "162112": {
    "name": "usa_maryland",
    "country_code": "US-MD"
  },
  "61315": {
    "name": "usa_massachusetts",
    "country_code": "US-MA"
  },
  "165789": {
    "name": "usa_michigan",
    "country_code": "US-MI"
  },
  "165471": {
    "name": "usa_minnesota",
    "country_code": "US-MN"
  },
  "161943": {
    "name": "usa_mississippi",
    "country_code": "US-MS"
  },
  "161638": {
    "name": "usa_missouri",
    "country_code": "US-MO"
  },
  "162115": {
    "name": "usa_montana",
    "country_code": "US-MT"
  },
  "161648": {
    "name": "usa_nebraska",
    "country_code": "US-NE"
  },
  "165473": {
    "name": "usa_nevada",
    "country_code": "US-NV"
  },
  "67213": {
    "name": "usa_new_hampshire",
    "country_code": "US-NH"
  },
  "224951": {
    "name": "usa_new_jersey",
    "country_code": "US-NJ"
  },
  "162014": {
    "name": "usa_new_mexico",
    "country_code": "US-NM"
  },
  "61320": {
    "name": "usa_new_york",
    "country_code": "US-NY"
  },
  "224045": {
    "name": "usa_north_carolina",
    "country_code": "US-NC"
  },
  "161653": {
    "name": "usa_north_dakota",
    "country_code": "US-ND"
  },
  "162061": {
    "name": "usa_ohio",
    "country_code": "US-OH"
  },
  "161645": {
    "name": "usa_oklahoma",
    "country_code": "US-OK"
  },
  "165476": {
    "name": "usa_oregon",
    "country_code": "US-OR"
  },
  "162109": {
    "name": "usa_pennsylvania",
    "country_code": "US-PA"
  },
  "392915": {
    "name": "usa_rhode_island",
    "country_code": "US-RI"
  },
  "224040": {
    "name": "usa_south_carolina",
    "country_code": "US-SC"
  },
  "161652": {
    "name": "usa_south_dakota",
    "country_code": "US-SD"
  },
  "161838": {
    "name": "usa_tennessee",
    "country_code": "US-TN"
  },
  "114690": {
    "name": "usa_texas",
    "country_code": "US-TX"
  },
  "161993": {
    "name": "usa_utah",
    "country_code": "US-UT"
  },
  "60759": {
    "name": "usa_vermont",
    "country_code": "US-VT"
  },
  "224042": {
    "name": "usa_virginia",
    "country_code": "US-VA"
  },
  "165479": {
    "name": "usa_washington",
    "country_code": "US-WA"
  },
  "162068": {
    "name": "usa_west_virginia",
    "country_code": "US-WV"
  },
  "165466": {
    "name": "usa_wisconsin",
    "country_code": "US-WI"
  },
  "161991": {
    "name": "usa_wyoming",
    "country_code": "US-WY"
  },
  "306001": {
    "name": "usa_guam",
    "country_code": "GU"
  },
  "306004": {
    "name": "usa_northern_mariana_islands",
    "country_code": "MP"
  },
  "2177187": {
    "name": "usa_american_samoa",
    "country_code": "AS"
  },
  "391186": {
    "name": "canada_alberta",
    "country_code": "CA-AB"
  },
  "390867": {
    "name": "canada_british_columbia",
    "country_code": "CA-BC"
  },
  "390841": {
    "name": "canada_manitoba",
    "country_code": "CA-MB"
  },
  "68942": {
    "name": "canada_new_brunswick",
    "country_code": "CA-NB"
  },
  "391196": {
    "name": "canada_newfoundland_and_labrador",
    "country_code": "CA-NL"
  },
  "391220": {
    "name": "canada_northwest_territories",
    "country_code": "CA-NT"
  },
  "390558": {
    "name": "canada_nova_scotia",
    "country_code": "CA-NS"
  },
  "390840": {
    "name": "canada_nunavut",
    "country_code": "CA-NU"
  },
  "9330364": {
    "name": "canada_ontario_central_ontario",
    "country_code": "CA-ON"
  },
  "9330323": {
    "name": "canada_ontario_eastern_ontario",
    "country_code": "CA-ON"
  },
  "9330407": {
    "name": "canada_ontario_golden_horseshoe",
    "country_code": "CA-ON"
  },
  "9330447": {
    "name": "canada_ontario_northeastern_ontario",
    "country_code": "CA-ON"
  },
  "9330452": {
    "name": "canada_ontario_northwestern_ontario",
    "country_code": "CA-ON"
  },
  "9330436": {
    "name": "canada_ontario_southwestern_ontario",
    "country_code": "CA-ON"
  },
  "391115": {
    "name": "canada_prince_edward_island",
    "country_code": "CA-PE"
  },
  "8107213": {
    "name": "canada_quebec_abitibi_temiscamingue",
    "country_code": "CA-QC-ABT"
  },
  "8137316": {
    "name": "canada_quebec_bas_saint_laurent",
    "country_code": "CA-QC-BSL"
  },
  "8114679": {
    "name": "canada_quebec_capitale_nationale",
    "country_code": "CA-QC-CAPN"
  },
  "8100165": {
    "name": "canada_quebec_centre_du_quebec",
    "country_code": "CA-QC-CQC"
  },
  "8138409": {
    "name": "canada_quebec_chaudiere_appalaches",
    "country_code": "CA-QC-CHAPP"
  },
  "8126390": {
    "name": "canada_quebec_cote_nord",
    "country_code": "CA-QC-CN"
  },
  "8098121": {
    "name": "canada_quebec_estrie",
    "country_code": "CA-QC-ESTR"
  },
  "7485821": {
    "name": "canada_quebec_gaspesie_iles_de_la_madeleine",
    "country_code": "CA-QC-GIM"
  },
  "8098959": {
    "name": "canada_quebec_lanaudiere",
    "country_code": "CA-QC-LAN"
  },
  "8098885": {
    "name": "canada_quebec_laurentides",
    "country_code": "CA-QC-LAUR"
  },
  "3532125": {
    "name": "canada_quebec_laval",
    "country_code": "CA-QC-LAV"
  },
  "8098985": {
    "name": "canada_quebec_mauricie",
    "country_code": "CA-QC-MAUR"
  },
  "8093332": {
    "name": "canada_quebec_monteregie",
    "country_code": "CA-QC-MGIE"
  },
  "1571328": {
    "name": "canada_quebec_montreal",
    "country_code": "CA-QC-MTL"
  },
  "8118159": {
    "name": "canada_quebec_nord_du_quebec",
    "country_code": "CA-QC-NQC"
  },
  "8100164": {
    "name": "canada_quebec_outaouais",
    "country_code": "CA-QC-OUT"
  },
  "8120111": {
    "name": "canada_quebec_saguenay_lac_saint_jean",
    "country_code": "CA-QC-SLSJ"
  },
  "391178": {
    "name": "canada_saskatchewan",
    "country_code": "CA-SK"
  },
  "391455": {
    "name": "canada_yukon",
    "country_code": "CA-YT"
  },
  "192756": {
    "name": "algeria",
    "country_code": "DZ"
  },
  "195267": {
    "name": "angola",
    "country_code": "AO"
  },
  "192784": {
    "name": "benin",
    "country_code": "BJ"
  },
  "1889339": {
    "name": "botswana",
    "country_code": "BW"
  },
  "192783": {
    "name": "burkina_faso",
    "country_code": "BF"
  },
  "195269": {
    "name": "burundi",
    "country_code": "BI"
  },
  "192830": {
    "name": "cameroon",
    "country_code": "CM"
  },
  "535774": {
    "name": "cape_verde",
    "country_code": "CV"
  },
  "192790": {
    "name": "central_african_republic",
    "country_code": "CF"
  },
  "2361304": {
    "name": "chad",
    "country_code": "TD"
  },
  "535790": {
    "name": "comoros",
    "country_code": "KM"
  },
  "192794": {
    "name": "congo_brazzaville",
    "country_code": "CG"
  },
  "192795": {
    "name": "congo_kinshasa",
    "country_code": "CD"
  },
  "192801": {
    "name": "djibouti",
    "country_code": "DJ"
  },
  "1473947": {
    "name": "egypt",
    "country_code": "EG"
  },
  "192791": {
    "name": "equatorial_guinea",
    "country_code": "GQ"
  },
  "296961": {
    "name": "eritrea",
    "country_code": "ER"
  },
  "192800": {
    "name": "ethiopia",
    "country_code": "ET"
  },
  "192793": {
    "name": "gabon",
    "country_code": "GA"
  },
  "192774": {
    "name": "gambia",
    "country_code": "GM"
  },
  "192781": {
    "name": "ghana",
    "country_code": "GH"
  },
  "192778": {
    "name": "guinea",
    "country_code": "GN"
  },
  "192776": {
    "name": "guinea_bissau",
    "country_code": "GW"
  },
  "192779": {
    "name": "ivory_coast",
    "country_code": "CI"
  },
  "192798": {
    "name": "kenya",
    "country_code": "KE"
  },
  "2093234": {
    "name": "lesotho",
    "country_code": "LS"
  },
  "192780": {
    "name": "liberia",
    "country_code": "LR"
  },
  "192758": {
    "name": "libya",
    "country_code": "LY"
  },
  "447325": {
    "name": "madagascar",
    "country_code": "MG"
  },
  "195290": {
    "name": "malawi",
    "country_code": "MW"
  },
  "192785": {
    "name": "mali",
    "country_code": "ML"
  },
  "192763": {
    "name": "mauritania",
    "country_code": "MR"
  },
  "535828": {
    "name": "mauritius",
    "country_code": "MU"
  },
  "3630439": {
    "name": "morocco",
    "country_code": "MA"
  },
  "195273": {
    "name": "mozambique",
    "country_code": "MZ"
  },
  "195266": {
    "name": "namibia",
    "country_code": "NA"
  },
  "192786": {
    "name": "niger",
    "country_code": "NE"
  },
  "192787": {
    "name": "nigeria",
    "country_code": "NG"
  },
  "2425963": {
    "name": "norway_bouvet_island",
    "country_code": "BV"
  },
  "171496": {
    "name": "rwanda",
    "country_code": "RW"
  },
  "535880": {
    "name": "sao_tome_and_principe",
    "country_code": "ST"
  },
  "192775": {
    "name": "senegal",
    "country_code": "SN"
  },
  "536765": {
    "name": "seychelles",
    "country_code": "SC"
  },
  "192777": {
    "name": "sierra_leone",
    "country_code": "SL"
  },
  "192799": {
    "name": "somalia",
    "country_code": "SO"
  },
  "87565": {
    "name": "south_africa",
    "country_code": "ZA"
  },
  "1656678": {
    "name": "south_sudan",
    "country_code": "SS"
  },
  "192789": {
    "name": "sudan",
    "country_code": "SD"
  },
  "88210": {
    "name": "swaziland",
    "country_code": "SZ"
  },
  "195270": {
    "name": "tanzania",
    "country_code": "TZ"
  },
  "192782": {
    "name": "togo",
    "country_code": "TG"
  },
  "192757": {
    "name": "tunisia",
    "country_code": "TN"
  },
  "192796": {
    "name": "uganda",
    "country_code": "UG"
  },
  "1964272": {
    "name": "united_kingdom_saint_helena_ascension_tristan_da_cunha",
    "country_code": "SH"
  },
  "2559126": {
    "name": "western_sahara",
    "country_code": "EH"
  },
  "195271": {
    "name": "zambia",
    "country_code": "ZM"
  },
  "195272": {
    "name": "zimbabwe",
    "country_code": "ZW"
  },
  "303427": {
    "name": "afghanistan",
    "country_code": "AF"
  },
  "364066": {
    "name": "armenia",
    "country_code": "AM"
  },
  "364110": {
    "name": "azerbaijan",
    "country_code": "AZ"
  },
  "184640": {
    "name": "bangladesh",
    "country_code": "BD"
  },
  "378734": {
    "name": "bahrain",
    "country_code": "BH"
  },
  "184629": {
    "name": "bhutan",
    "country_code": "BT"
  },
  "2103120": {
    "name": "brunei",
    "country_code": "BN"
  },
  "49898": {
    "name": "cambodia",
    "country_code": "KHM"
  },
  "305142": {
    "name": "east_timor",
    "country_code": "TL"
  },
  "28699": {
    "name": "georgia",
    "country_code": "GE"
  },
  "1473946": {
    "name": "israel",
    "country_code": "IL"
  },
  "304938": {
    "name": "iran",
    "country_code": "IR"
  },
  "304934": {
    "name": "iraq",
    "country_code": "IQ"
  },
  "184818": {
    "name": "jordan",
    "country_code": "JO"
  },
  "214665": {
    "name": "kazakhstan",
    "country_code": "KZ"
  },
  "305099": {
    "name": "kuwait",
    "country_code": "KW"
  },
  "178009": {
    "name": "kyrgyzstan",
    "country_code": "KG"
  },
  "49903": {
    "name": "laos",
    "country_code": "LA"
  },
  "184843": {
    "name": "lebanon",
    "country_code": "LB"
  },
  "2108121": {
    "name": "malaysia",
    "country_code": "MY"
  },
  "536773": {
    "name": "maldives",
    "country_code": "MV"
  },
  "161033": {
    "name": "mongolia",
    "country_code": "MN"
  },
  "50371": {
    "name": "myanmar",
    "country_code": "MM"
  },
  "192734": {
    "name": "north_korea",
    "country_code": "KP"
  },
  "184633": {
    "name": "nepal",
    "country_code": "NP"
  },
  "305138": {
    "name": "oman",
    "country_code": "OM"
  },
  "307573": {
    "name": "pakistan",
    "country_code": "PK"
  },
  "1703814": {
    "name": "palestine",
    "country_code": "PS"
  },
  "2850940": {
    "name": "philippines",
    "country_code": "PH"
  },
  "305095": {
    "name": "qatar",
    "country_code": "QA"
  },
  "307584": {
    "name": "saudi_arabia",
    "country_code": "SA"
  },
  "536780": {
    "name": "singapore",
    "country_code": "SG"
  },
  "536807": {
    "name": "sri_lanka",
    "country_code": "LK"
  },
  "307756": {
    "name": "south_korea",
    "country_code": "KR"
  },
  "184840": {
    "name": "syria",
    "country_code": "SY"
  },
  "214626": {
    "name": "tajikistan",
    "country_code": "TJ"
  },
  "3777248": {
    "name": "taiwan",
    "country_code": "TW"
  },
  "2067731": {
    "name": "thailand",
    "country_code": "TH"
  },
  "223026": {
    "name": "turkmenistan",
    "country_code": "TM"
  },
  "307763": {
    "name": "united_arab_emirates",
    "country_code": "AE"
  },
  "1993867": {
    "name": "united_kingdom_british_indian_ocean_territory",
    "country_code": "IO"
  },
  "196240": {
    "name": "uzbekistan",
    "country_code": "UZ"
  },
  "49915": {
    "name": "vietnam",
    "country_code": "VN"
  },
  "305092": {
    "name": "yemen",
    "country_code": "YE"
  },
  "2390836": {
    "name": "indonesia_aceh",
    "country_code": "ID-AC"
  },
  "1615621": {
    "name": "indonesia_bali",
    "country_code": "ID-BA"
  },
  "3797243": {
    "name": "indonesia_bangka_belitung_islands",
    "country_code": "ID-BB"
  },
  "2388356": {
    "name": "indonesia_banten",
    "country_code": "ID-BT"
  },
  "2390837": {
    "name": "indonesia_bengkulu",
    "country_code": "ID-BE"
  },
  "2388357": {
    "name": "indonesia_central_java",
    "country_code": "ID-JT"
  },
  "2388613": {
    "name": "indonesia_central_kalimantan",
    "country_code": "ID-KT"
  },
  "2388664": {
    "name": "indonesia_central_sulawesi",
    "country_code": "ID-ST"
  },
  "3438227": {
    "name": "indonesia_east_java",
    "country_code": "ID-JI"
  },
  "5449459": {
    "name": "indonesia_east_kalimantan",
    "country_code": "ID-KI"
  },
  "2396778": {
    "name": "indonesia_east_nusa_tenggara",
    "country_code": "ID-NT"
  },
  "2388665": {
    "name": "indonesia_gorontalo",
    "country_code": "ID-GO"
  },
  "6362934": {
    "name": "indonesia_jakarta",
    "country_code": "ID-JK"
  },
  "2390838": {
    "name": "indonesia_jambi",
    "country_code": "ID-JA"
  },
  "2390839": {
    "name": "indonesia_lampung",
    "country_code": "ID-LA"
  },
  "2396795": {
    "name": "indonesia_maluku",
    "country_code": "ID-MA"
  },
  "5449460": {
    "name": "indonesia_north_kalimantan",
    "country_code": "ID-KU"
  },
  "2396796": {
    "name": "indonesia_north_maluku",
    "country_code": "ID-MU"
  },
  "2388666": {
    "name": "indonesia_north_sulawesi",
    "country_code": "ID-SA"
  },
  "2390843": {
    "name": "indonesia_north_sumatra",
    "country_code": "ID-SU"
  },
  "4521144": {
    "name": "indonesia_papua",
    "country_code": "ID-PA"
  },
  "2390840": {
    "name": "indonesia_riau",
    "country_code": "ID-RI"
  },
  "3797244": {
    "name": "indonesia_riau_islands",
    "country_code": "ID-KR"
  },
  "2388668": {
    "name": "indonesia_southeast_sulawesi",
    "country_code": "ID-SG"
  },
  "2388615": {
    "name": "indonesia_south_kalimantan",
    "country_code": "ID-KS"
  },
  "2388667": {
    "name": "indonesia_south_sulawesi",
    "country_code": "ID-SN"
  },
  "2390842": {
    "name": "indonesia_south_sumatra",
    "country_code": "ID-SS"
  },
  "2388361": {
    "name": "indonesia_west_java",
    "country_code": "ID-JB"
  },
  "2388616": {
    "name": "indonesia_west_kalimantan",
    "country_code": "ID-KB"
  },
  "1615622": {
    "name": "indonesia_west_nusa_tenggara",
    "country_code": "ID-NB"
  },
  "4521145": {
    "name": "indonesia_west_papua",
    "country_code": "ID-PB"
  },
  "2388669": {
    "name": "indonesia_west_sulawesi",
    "country_code": "ID-SR"
  },
  "2390841": {
    "name": "indonesia_west_sumatra",
    "country_code": "ID-SB"
  },
  "5616105": {
    "name": "indonesia_yogyakarta",
    "country_code": "ID-YO"
  },
  "287827": {
    "name": "belize",
    "country_code": "BZ"
  },
  "287667": {
    "name": "costa_rica",
    "country_code": "CR"
  },
  "1520612": {
    "name": "el_salvador",
    "country_code": "SV"
  },
  "1521463": {
    "name": "guatemala",
    "country_code": "GT"
  },
  "287670": {
    "name": "honduras",
    "country_code": "HN"
  },
  "287668": {
    "name": "panama",
    "country_code": "PA"
  },
  "555717": {
    "name": "trinidad_and_tobago",
    "country_code": "TT"
  },
  "307829": {
    "name": "haiti",
    "country_code": "HT"
  },
  "536900": {
    "name": "antigua_and_barbuda",
    "country_code": "BB"
  },
  "547511": {
    "name": "barbados",
    "country_code": "BB"
  },
  "547469": {
    "name": "bahamas",
    "country_code": "BS"
  },
  "307833": {
    "name": "cuba",
    "country_code": "CU"
  },
  "307823": {
    "name": "dominica",
    "country_code": "DM"
  },
  "307828": {
    "name": "dominican_republic",
    "country_code": "DO"
  },
  "550727": {
    "name": "grenada",
    "country_code": "GD"
  },
  "555017": {
    "name": "jamaica",
    "country_code": "JM"
  },
  "287666": {
    "name": "nicaragua",
    "country_code": "NI"
  },
  "550728": {
    "name": "saint_lucia",
    "country_code": "LC"
  },
  "550725": {
    "name": "saint_vincent_and_the_grenadines",
    "country_code": "VC"
  },
  "536899": {
    "name": "saint_kitts_and_nevis",
    "country_code": "KN"
  },
  "2177161": {
    "name": "united_kingdom_anguilla",
    "country_code": "AI"
  },
  "2185366": {
    "name": "united_kingdom_cayman_islands",
    "country_code": "KY"
  },
  "537257": {
    "name": "united_kingdom_montserrat",
    "country_code": "MS"
  },
  "547479": {
    "name": "united_kingdom_turks_and_caicos_islands",
    "country_code": "TC"
  },
  "285454": {
    "name": "united_kingdom_virgin_islands",
    "country_code": "VG"
  },
  "4422604": {
    "name": "usa_puerto_rico",
    "country_code": "PR"
  },
  "286898": {
    "name": "usa_virgin_islands",
    "country_code": "VI"
  },
  "556706": {
    "name": "new_zealand",
    "country_code": "NZ"
  },
  "2184233": {
    "name": "cook_islands",
    "country_code": "CK"
  },
  "571771": {
    "name": "marshall_islands",
    "country_code": "MH"
  },
  "571804": {
    "name": "nauru",
    "country_code": "NR"
  },
  "1558556": {
    "name": "niue",
    "country_code": "NU"
  },
  "571805": {
    "name": "palau",
    "country_code": "PW"
  },
  "571802": {
    "name": "micronesia",
    "country_code": "FM"
  },
  "307866": {
    "name": "papua_new_guinea",
    "country_code": "PG"
  },
  "1872673": {
    "name": "samoa",
    "country_code": "WS"
  },
  "1857436": {
    "name": "solomon_islands",
    "country_code": "SB"
  },
  "2186600": {
    "name": "new_zealand_tokelau",
    "country_code": "TK"
  },
  "2186665": {
    "name": "tonga",
    "country_code": "TO"
  },
  "2177266": {
    "name": "tuvalu",
    "country_code": "TV"
  },
  "2185375": {
    "name": "united_kingdom_pitcairn",
    "country_code": "PN"
  },
  "2177246": {
    "name": "vanuatu",
    "country_code": "VU"
  },
  "571747": {
    "name": "fiji",
    "country_code": "FJ"
  },
  "571178": {
    "name": "kiribati",
    "country_code": "KL"
  },
  "2354197": {
    "name": "australia_australian_capital_territory",
    "country_code": "AU-ACT"
  },
  "2316593": {
    "name": "australia_new_south_wales",
    "country_code": "AU-NSW"
  },
  "2316594": {
    "name": "australia_northern_territory",
    "country_code": "AU-NT"
  },
  "2316598": {
    "name": "australia_western_australia",
    "country_code": "AU-WA"
  },
  "2316596": {
    "name": "australia_south_australia",
    "country_code": "AU-SA"
  },
  "2316741": {
    "name": "australia_victoria",
    "country_code": "AU-VIC"
  },
  "2316595": {
    "name": "australia_queensland",
    "country_code": "AU-QLD"
  },
  "2369652": {
    "name": "australia_tasmania",
    "country_code": "AU-TAS"
  },
  "2177207": {
    "name": "australia_christmas_island",
    "country_code": "CX"
  },
  "82636": {
    "name": "australia_cocos_islands",
    "country_code": "CC"
  },
  "3225677": {
    "name": "australia_coral_sea_islands",
    "country_code": "AU"
  },
  "2574988": {
    "name": "australia_norfolk_island",
    "country_code": "NF"
  },
  "252645": {
    "name": "bolivia",
    "country_code": "BO"
  },
  "167454": {
    "name": "chile",
    "country_code": "CL"
  },
  "120027": {
    "name": "colombia",
    "country_code": "CO"
  },
  "108089": {
    "name": "ecuador",
    "country_code": "EC"
  },
  "287083": {
    "name": "guyana",
    "country_code": "GY"
  },
  "287077": {
    "name": "paraguay",
    "country_code": "PY"
  },
  "288247": {
    "name": "peru",
    "country_code": "PE"
  },
  "287082": {
    "name": "suriname",
    "country_code": "SR"
  },
  "2185374": {
    "name": "united_kingdom_falkland",
    "country_code": "FK"
  },
  "1983628": {
    "name": "united_kingdom_south_georgia_and_south_sandwich",
    "country_code": "GS"
  },
  "287072": {
    "name": "uruguay",
    "country_code": "UY"
  },
  "272644": {
    "name": "venezuela",
    "country_code": "VE"
  },
  "1224652": {
    "name": "argentina_buenos_aires_city",
    "country_code": "AR-C"
  },
  "1632167": {
    "name": "argentina_buenos_aires",
    "country_code": "AR-B"
  },
  "153545": {
    "name": "argentina_catamarca",
    "country_code": "AR-K"
  },
  "153554": {
    "name": "argentina_chaco",
    "country_code": "AR-H"
  },
  "153548": {
    "name": "argentina_chubut",
    "country_code": "AR-CU"
  },
  "3592494": {
    "name": "argentina_cordoba",
    "country_code": "AR-X"
  },
  "153552": {
    "name": "argentina_corrientes",
    "country_code": "AR-W"
  },
  "153551": {
    "name": "argentina_entre_rios",
    "country_code": "AR-E"
  },
  "2849847": {
    "name": "argentina_formosa",
    "country_code": "AR-P"
  },
  "153556": {
    "name": "argentina_jujuy",
    "country_code": "AR-Y"
  },
  "153541": {
    "name": "argentina_la_pampa",
    "country_code": "AR-L"
  },
  "153536": {
    "name": "argentina_la_rioja",
    "country_code": "AR-F"
  },
  "153540": {
    "name": "argentina_mendoza",
    "country_code": "AR-M"
  },
  "153553": {
    "name": "argentina_misiones",
    "country_code": "AR-N"
  },
  "1606727": {
    "name": "argentina_neuquen",
    "country_code": "AR-Q"
  },
  "153547": {
    "name": "argentina_rio_negro",
    "country_code": "AR-R"
  },
  "2405230": {
    "name": "argentina_salta",
    "country_code": "AR-A"
  },
  "153539": {
    "name": "argentina_san_juan",
    "country_code": "AR-J"
  },
  "153538": {
    "name": "argentina_san_luis",
    "country_code": "AR-D"
  },
  "153549": {
    "name": "argentina_santa_cruz",
    "country_code": "AR-Z"
  },
  "153543": {
    "name": "argentina_santa_fe",
    "country_code": "AR-S"
  },
  "153544": {
    "name": "argentina_santiago_del_estero",
    "country_code": "AR-G"
  },
  "153550": {
    "name": "argentina_tierra_del_fuego",
    "country_code": "AR-V"
  },
  "153558": {
    "name": "argentina_tucuman",
    "country_code": "AR-T"
  },
  "326266": {
    "name": "brazil_acre",
    "country_code": "BR-AC"
  },
  "303781": {
    "name": "brazil_alagoas",
    "country_code": "BR-AL"
  },
  "331463": {
    "name": "brazil_amapa",
    "country_code": "BR-AP"
  },
  "332476": {
    "name": "brazil_amazonas",
    "country_code": "BR-AM"
  },
  "362413": {
    "name": "brazil_bahia",
    "country_code": "BR-BA"
  },
  "302635": {
    "name": "brazil_ceara",
    "country_code": "BR-CE"
  },
  "421151": {
    "name": "brazil_distrito_federal",
    "country_code": "BR-DF"
  },
  "54882": {
    "name": "brazil_espirito_santo",
    "country_code": "BR-ES"
  },
  "334443": {
    "name": "brazil_goias",
    "country_code": "BR-GO"
  },
  "332924": {
    "name": "brazil_maranhao",
    "country_code": "BR-MA"
  },
  "333597": {
    "name": "brazil_mato_grosso",
    "country_code": "BR-MT"
  },
  "334051": {
    "name": "brazil_mato_grosso_do_sul",
    "country_code": "BR-MS"
  },
  "315173": {
    "name": "brazil_minas_gerais",
    "country_code": "BR-MG"
  },
  "185579": {
    "name": "brazil_para",
    "country_code": "BR-PA"
  },
  "301464": {
    "name": "brazil_paraiba",
    "country_code": "BR-PB"
  },
  "297640": {
    "name": "brazil_parana",
    "country_code": "BR-PR"
  },
  "303702": {
    "name": "brazil_pernambuco",
    "country_code": "BR-PE"
  },
  "302819": {
    "name": "brazil_piaui",
    "country_code": "BR-PI"
  },
  "57963": {
    "name": "brazil_rio_de_janeiro",
    "country_code": "BR-RJ"
  },
  "301079": {
    "name": "brazil_rio_grande_do_norte",
    "country_code": "BR-RN"
  },
  "242620": {
    "name": "brazil_rio_grande_do_sul",
    "country_code": "BR-RS"
  },
  "325866": {
    "name": "brazil_rondonia",
    "country_code": "BR-RO"
  },
  "326287": {
    "name": "brazil_roraima",
    "country_code": "BR-RR"
  },
  "296584": {
    "name": "brazil_santa_catarina",
    "country_code": "BR-SC"
  },
  "298204": {
    "name": "brazil_sao_paulo",
    "country_code": "BR-SP"
  },
  "303940": {
    "name": "brazil_sergipe",
    "country_code": "BR-SE"
  },
  "336819": {
    "name": "brazil_tocantins",
    "country_code": "BR-TO"
  },
  "53937": {
    "name": "italy_abruzzo",
    "country_code": "IT-65"
  },
  "40137": {
    "name": "italy_basilicata",
    "country_code": "IT-77"
  },
  "1783980": {
    "name": "italy_calabria",
    "country_code": "IT-78"
  },
  "40218": {
    "name": "italy_campania",
    "country_code": "IT-72"
  },
  "42611": {
    "name": "italy_emilia_romagna",
    "country_code": "IT-45"
  },
  "179296": {
    "name": "italy_friuli_venezia_giulia",
    "country_code": "IT-36"
  },
  "40784": {
    "name": "italy_lazio",
    "country_code": "IT-62"
  },
  "301482": {
    "name": "italy_liguria",
    "country_code": "IT-42"
  },
  "44879": {
    "name": "italy_lombardia",
    "country_code": "IT-25"
  },
  "53060": {
    "name": "italy_marche",
    "country_code": "IT-57"
  },
  "41256": {
    "name": "italy_molise",
    "country_code": "IT-67"
  },
  "44874": {
    "name": "italy_piemonte",
    "country_code": "IT-21"
  },
  "40095": {
    "name": "italy_puglia",
    "country_code": "IT-75"
  },
  "7361997": {
    "name": "italy_sardegna",
    "country_code": "IT-88"
  },
  "39152": {
    "name": "italy_sicilia",
    "country_code": "IT-82"
  },
  "41977": {
    "name": "italy_toscana",
    "country_code": "IT-52"
  },
  "45757": {
    "name": "italy_trentino_alto_adige",
    "country_code": "IT-32"
  },
  "42004": {
    "name": "italy_umbria",
    "country_code": "IT-55"
  },
  "45155": {
    "name": "italy_valle_aosta",
    "country_code": "IT-23"
  },
  "43648": {
    "name": "italy_veneto",
    "country_code": "IT-34"
  },
  "47772": {
    "name": "netherlands_zuid_holland",
    "country_code": "NL-ZH"
  },
  "47806": {
    "name": "netherlands_zeeland",
    "country_code": "NL-ZE"
  },
  "47696": {
    "name": "netherlands_noord_brabant",
    "country_code": "NL-NB"
  },
  "47793": {
    "name": "netherlands_limburg",
    "country_code": "NL-LI"
  },
  "47554": {
    "name": "netherlands_gelderland",
    "country_code": "NL-GE"
  },
  "47608": {
    "name": "netherlands_overijssel",
    "country_code": "NL-OV"
  },
  "47540": {
    "name": "netherlands_drenthe",
    "country_code": "NL-DR"
  },
  "47381": {
    "name": "netherlands_friesland",
    "country_code": "NL-FR"
  },
  "47826": {
    "name": "netherlands_groningen",
    "country_code": "NL-GR"
  },
  "47407": {
    "name": "netherlands_flevoland",
    "country_code": "NL-FL"
  },
  "47667": {
    "name": "netherlands_utrecht",
    "country_code": "NL-UT"
  },
  "47654": {
    "name": "netherlands_noord_holland",
    "country_code": "NL-NH"
  },
  "1231749": {
    "name": "netherlands_aruba",
    "country_code": "AW"
  },
  "1216719": {
    "name": "netherlands_curacao",
    "country_code": "CW"
  },
  "1231790": {
    "name": "netherlands_sint_maarten",
    "country_code": "SX"
  },
  "1216720": {
    "name": "netherlands_caribbean",
    "country_code": "NL"
  },
  "435514": {
    "name": "czech_republic_praha",
    "country_code": "CZ-PR"
  },
  "442397": {
    "name": "czech_republic_stredocesky",
    "country_code": "CZ-ST"
  },
  "442321": {
    "name": "czech_republic_jihocesky",
    "country_code": "CZ-JC"
  },
  "442466": {
    "name": "czech_republic_plzensky",
    "country_code": "CZ-PL"
  },
  "442314": {
    "name": "czech_republic_karlovarsky",
    "country_code": "CZ-KA"
  },
  "442452": {
    "name": "czech_republic_ustecky",
    "country_code": "CZ-US"
  },
  "442455": {
    "name": "czech_republic_liberecky",
    "country_code": "CZ-LI"
  },
  "442463": {
    "name": "czech_republic_kralovehradecky",
    "country_code": "CZ-KR"
  },
  "442460": {
    "name": "czech_republic_pardubicky",
    "country_code": "CZ-PA"
  },
  "442453": {
    "name": "czech_republic_vysocina",
    "country_code": "CZ-VY"
  },
  "442311": {
    "name": "czech_republic_jihomoravsky",
    "country_code": "CZ-JM"
  },
  "442459": {
    "name": "czech_republic_olomoucky",
    "country_code": "CZ-OL"
  },
  "442461": {
    "name": "czech_republic_moravskoslezsky",
    "country_code": "CZ-MO"
  },
  "442449": {
    "name": "czech_republic_zlinsky",
    "country_code": "CZ-ZL"
  },
  "224457": {
    "name": "poland_dolnoslaskie",
    "country_code": "PL-DS"
  },
  "223407": {
    "name": "poland_kujawsko_pomorskie",
    "country_code": "PL-KP"
  },
  "130919": {
    "name": "poland_lubelskie",
    "country_code": "PL-LU"
  },
  "130969": {
    "name": "poland_lubuskie",
    "country_code": "PL-LB"
  },
  "224458": {
    "name": "poland_lodzkie",
    "country_code": "PL-LD"
  },
  "224459": {
    "name": "poland_malopolskie",
    "country_code": "PL-MA"
  },
  "130935": {
    "name": "poland_mazowieckie",
    "country_code": "PL-MZ"
  },
  "224460": {
    "name": "poland_opolskie",
    "country_code": "PL-OP"
  },
  "130957": {
    "name": "poland_podkarpackie",
    "country_code": "PL-PK"
  },
  "224461": {
    "name": "poland_podlaskie",
    "country_code": "PL-PD"
  },
  "130975": {
    "name": "poland_pomorskie",
    "country_code": "PL-PM"
  },
  "224462": {
    "name": "poland_slaskie",
    "country_code": "PL-SL"
  },
  "130914": {
    "name": "poland_swietokrzyskie",
    "country_code": "PL-SK"
  },
  "223408": {
    "name": "poland_warminsko_mazurskie",
    "country_code": "PL-WN"
  },
  "130971": {
    "name": "poland_wielkopolskie",
    "country_code": "PL-WP"
  },
  "104401": {
    "name": "poland_zachodniopomorskie",
    "country_code": "PL-ZP"
  },
  "2106112": {
    "name": "germany_baden_wuerttemberg_freiburg_regbez",
    "country_code": "DE-BW"
  },
  "22027": {
    "name": "germany_baden_wuerttemberg_karlsruhe_regbez",
    "country_code": "DE-BW"
  },
  "22041": {
    "name": "germany_baden_wuerttemberg_stuttgart_regbez",
    "country_code": "DE-BW"
  },
  "2811874": {
    "name": "germany_baden_wuerttemberg_tuebingen_regbez",
    "country_code": "DE-BW"
  },
  "17614": {
    "name": "germany_bayern_mittelfranken",
    "country_code": "DE-BY"
  },
  "17593": {
    "name": "germany_bayern_niederbayern",
    "country_code": "DE-BY"
  },
  "2145274": {
    "name": "germany_bayern_oberbayern",
    "country_code": "DE-BY"
  },
  "17592": {
    "name": "germany_bayern_oberfranken",
    "country_code": "DE-BY"
  },
  "17596": {
    "name": "germany_bayern_oberpfalz",
    "country_code": "DE-BY"
  },
  "17657": {
    "name": "germany_bayern_schwaben",
    "country_code": "DE-BY"
  },
  "17585": {
    "name": "germany_bayern_unterfranken",
    "country_code": "DE-BY"
  },
  "62422": {
    "name": "germany_berlin",
    "country_code": "DE-BE"
  },
  "62504": {
    "name": "germany_brandenburg",
    "country_code": "DE-BB"
  },
  "62718": {
    "name": "germany_bremen",
    "country_code": "DE-HB"
  },
  "62782": {
    "name": "germany_hamburg",
    "country_code": "DE-HH"
  },
  "62650": {
    "name": "germany_hessen",
    "country_code": "DE-HE"
  },
  "28322": {
    "name": "germany_mecklenburg_vorpommern",
    "country_code": "DE-MV"
  },
  "454192": {
    "name": "germany_niedersachsen",
    "country_code": "DE-NI"
  },
  "73340": {
    "name": "germany_nordrhein_westfalen_arnsberg",
    "country_code": "DE-NW"
  },
  "73347": {
    "name": "germany_nordrhein_westfalen_detmold",
    "country_code": "DE-NW"
  },
  "63306": {
    "name": "germany_nordrhein_westfalen_dusseldorf",
    "country_code": "DE-NW"
  },
  "72022": {
    "name": "germany_nordrhein_westfalen_koln",
    "country_code": "DE-NW"
  },
  "63594": {
    "name": "germany_nordrhein_westfalen_munster",
    "country_code": "DE-NW"
  },
  "62341": {
    "name": "germany_rheinland_pfalz",
    "country_code": "DE-RP"
  },
  "62372": {
    "name": "germany_saarland",
    "country_code": "DE-SL"
  },
  "62607": {
    "name": "germany_sachsen_anhalt",
    "country_code": "DE-ST"
  },
  "62467": {
    "name": "germany_sachsen",
    "country_code": "DE-SN"
  },
  "51529": {
    "name": "germany_schleswig_holstein",
    "country_code": "DE-SH"
  },
  "62366": {
    "name": "germany_thueringen",
    "country_code": "DE-TH"
  },
  "77189": {
    "name": "austria_niederosterreich",
    "country_code": "AT-3"
  },
  "76909": {
    "name": "austria_burgenland",
    "country_code": "AT-1"
  },
  "52345": {
    "name": "austria_karnten",
    "country_code": "AT-2"
  },
  "102303": {
    "name": "austria_oberosterreich",
    "country_code": "AT-4"
  },
  "86539": {
    "name": "austria_salzburg",
    "country_code": "AT-5"
  },
  "35183": {
    "name": "austria_steiermark",
    "country_code": "AT-6"
  },
  "52343": {
    "name": "austria_tirol",
    "country_code": "AT-7"
  },
  "109166": {
    "name": "austria_wien",
    "country_code": "AT-9"
  },
  "74942": {
    "name": "austria_vorarlberg",
    "country_code": "AT-8"
  },
  "348997": {
    "name": "spain_andalucia_almeria",
    "country_code": "ES-AL"
  },
  "349017": {
    "name": "spain_andalucia_cadiz",
    "country_code": "ES-CA"
  },
  "349016": {
    "name": "spain_andalucia_cordoba",
    "country_code": "ES-CA"
  },
  "349026": {
    "name": "spain_andalucia_granada",
    "country_code": "ES-GR"
  },
  "348995": {
    "name": "spain_andalucia_huelva",
    "country_code": "ES-H"
  },
  "348998": {
    "name": "spain_andalucia_jaen",
    "country_code": "ES-J"
  },
  "5275848": {
    "name": "spain_andalucia_malaga",
    "country_code": "ES-MA"
  },
  "349008": {
    "name": "spain_andalucia_sevilla",
    "country_code": "ES-SE"
  },
  "349022": {
    "name": "spain_aragon_huesca",
    "country_code": "ES-HU"
  },
  "349002": {
    "name": "spain_aragon_teruel",
    "country_code": "ES-TE"
  },
  "349030": {
    "name": "spain_aragon_zaragoza",
    "country_code": "ES-Z"
  },
  "6428094": {
    "name": "spain_asturias",
    "country_code": "ES-O"
  },
  "348981": {
    "name": "spain_illes_balears",
    "country_code": "ES-PM"
  },
  "6426101": {
    "name": "spain_cantabria",
    "country_code": "ES-S"
  },
  "348989": {
    "name": "spain_castilla_la_mancha_albacete",
    "country_code": "ES-AB"
  },
  "349019": {
    "name": "spain_castilla_la_mancha_ciudad_real",
    "country_code": "ES-CR"
  },
  "349024": {
    "name": "spain_castilla_la_mancha_cuenca",
    "country_code": "ES-CU"
  },
  "349025": {
    "name": "spain_castilla_la_mancha_guadalajara",
    "country_code": "ES-GU"
  },
  "348982": {
    "name": "spain_castilla_la_mancha_toledo",
    "country_code": "ES-TO"
  },
  "349009": {
    "name": "spain_castilla_y_leon_avila",
    "country_code": "ES-AV"
  },
  "349004": {
    "name": "spain_castilla_y_leon_burgos",
    "country_code": "ES-BU"
  },
  "349010": {
    "name": "spain_castilla_y_leon_leon",
    "country_code": "ES-LE"
  },
  "349032": {
    "name": "spain_castilla_y_leon_palencia",
    "country_code": "ES-P"
  },
  "349029": {
    "name": "spain_castilla_y_leon_salamanca",
    "country_code": "ES-SA"
  },
  "349007": {
    "name": "spain_castilla_y_leon_segovia",
    "country_code": "ES-SG"
  },
  "349005": {
    "name": "spain_castilla_y_leon_soria",
    "country_code": "ES-SO"
  },
  "349001": {
    "name": "spain_castilla_y_leon_valladolid",
    "country_code": "ES-VA"
  },
  "348987": {
    "name": "spain_castilla_y_leon_zamora",
    "country_code": "ES-ZA"
  },
  "349035": {
    "name": "spain_catalunya_barcelona",
    "country_code": "ES-B"
  },
  "349023": {
    "name": "spain_catalunya_girona",
    "country_code": "ES-GI"
  },
  "348990": {
    "name": "spain_catalunya_lleida",
    "country_code": "ES-L"
  },
  "348985": {
    "name": "spain_catalunya_tarragona",
    "country_code": "ES-T"
  },
  "349012": {
    "name": "spain_comunitat_valenciana_alicante",
    "country_code": "ES-A"
  },
  "349020": {
    "name": "spain_comunitat_valenciana_castellon",
    "country_code": "ES-CS"
  },
  "349000": {
    "name": "spain_comunitat_valenciana_valencia",
    "country_code": "ES-V"
  },
  "348994": {
    "name": "spain_extremadura_caceres",
    "country_code": "ES-CC"
  },
  "349021": {
    "name": "spain_galicia_la_coruna",
    "country_code": "ES-C"
  },
  "348992": {
    "name": "spain_galicia_lugo",
    "country_code": "ES-LU"
  },
  "348988": {
    "name": "spain_galicia_ourense",
    "country_code": "ES-OR"
  },
  "348986": {
    "name": "spain_galicia_pontevedra",
    "country_code": "ES-PO"
  },
  "348991": {
    "name": "spain_la_rioja",
    "country_code": "ES-LO"
  },
  "349055": {
    "name": "spain_comunidad_de_madrid",
    "country_code": "ES-M"
  },
  "6429242": {
    "name": "spain_comunidad_foral_de_navarra",
    "country_code": "ES-NA"
  },
  "349011": {
    "name": "spain_euskadi_alava",
    "country_code": "ES-VI"
  },
  "349034": {
    "name": "spain_euskadi_vizcaya",
    "country_code": "ES-BI"
  },
  "349015": {
    "name": "spain_euskadi_guipuzcoa",
    "country_code": "ES-SS"
  },
  "6427907": {
    "name": "spain_region_de_murcia",
    "country_code": "ES-MU"
  },
  "349031": {
    "name": "spain_canarias_las_palmas",
    "country_code": "ES-GC"
  },
  "349014": {
    "name": "spain_canarias_santa_cruz_de_tenerife",
    "country_code": "ES-TF"
  },
  "1154756": {
    "name": "spain_ceuta",
    "country_code": "ES-CE"
  },
  "1154757": {
    "name": "spain_melilla",
    "country_code": "ES-ML"
  },
  "151279": {
    "name": "united_kingdom_england_east_midlands",
    "country_code": "GB-ENG"
  },
  "151336": {
    "name": "united_kingdom_england_east",
    "country_code": "GB-ENG"
  },
  "175342": {
    "name": "united_kingdom_england_greater_london",
    "country_code": "GB-ENG"
  },
  "151164": {
    "name": "united_kingdom_england_north_east",
    "country_code": "GB-ENG"
  },
  "151261": {
    "name": "united_kingdom_england_north_west",
    "country_code": "GB-ENG"
  },
  "151304": {
    "name": "united_kingdom_england_south_east",
    "country_code": "GB-ENG"
  },
  "151339": {
    "name": "united_kingdom_england_south_west",
    "country_code": "GB-ENG"
  },
  "151283": {
    "name": "united_kingdom_england_west_midlands",
    "country_code": "GB-ENG"
  },
  "151012": {
    "name": "united_kingdom_england_yorkshire_and_the_humber",
    "country_code": "GB-ENG"
  },
  "388266": {
    "name": "slovakia_trnavsky",
    "country_code": "SK-TA"
  },
  "388267": {
    "name": "slovakia_trenciansky",
    "country_code": "SK-TC"
  },
  "388271": {
    "name": "slovakia_presovsky",
    "country_code": "SK-PV"
  },
  "388268": {
    "name": "slovakia_nitriansky",
    "country_code": "SK-NI"
  },
  "388272": {
    "name": "slovakia_kosicky",
    "country_code": "SK-KI"
  },
  "388269": {
    "name": "slovakia_zilinsky",
    "country_code": "SK-ZI"
  },
  "388270": {
    "name": "slovakia_banskobystricky",
    "country_code": "SK-BC"
  },
  "388265": {
    "name": "slovakia_bratislavsky",
    "country_code": "SK-BL"
  },
  "2022095": {
    "name": "india_andhra_pradesh",
    "country_code": "IN-AP"
  },
  "2027346": {
    "name": "india_arunachal_pradesh",
    "country_code": "IN-AR"
  },
  "2025886": {
    "name": "india_assam",
    "country_code": "IN-AS"
  },
  "1958982": {
    "name": "india_bihar",
    "country_code": "IN-BR"
  },
  "1972004": {
    "name": "india_chhattisgarh",
    "country_code": "IN-CT"
  },
  "11251493": {
    "name": "india_goa",
    "country_code": "IN-GA"
  },
  "1949080": {
    "name": "india_gujarat",
    "country_code": "IN-GJ"
  },
  "1942601": {
    "name": "india_haryana",
    "country_code": "IN-HR"
  },
  "364186": {
    "name": "india_himachal_pradesh",
    "country_code": "IN-HP"
  },
  "1943188": {
    "name": "india_jammu_and_kashmir",
    "country_code": "IN-JK"
  },
  "1960191": {
    "name": "india_jharkhand",
    "country_code": "IN-JH"
  },
  "2019939": {
    "name": "india_karnataka",
    "country_code": "IN-KA"
  },
  "2018151": {
    "name": "india_kerala",
    "country_code": "IN-KL"
  },
  "1950071": {
    "name": "india_madhya_pradesh",
    "country_code": "IN-MP"
  },
  "1950884": {
    "name": "india_maharashtra",
    "country_code": "IN-MH"
  },
  "2027869": {
    "name": "india_manipur",
    "country_code": "IN-MN"
  },
  "2027521": {
    "name": "india_meghalaya",
    "country_code": "IN-ML"
  },
  "2029046": {
    "name": "india_mizoram",
    "country_code": "IN-MZ"
  },
  "2027973": {
    "name": "india_nagaland",
    "country_code": "IN-NL"
  },
  "1984022": {
    "name": "india_odisha",
    "country_code": "IN-OR"
  },
  "1942686": {
    "name": "india_punjab",
    "country_code": "IN-PB"
  },
  "1942920": {
    "name": "india_rajasthan",
    "country_code": "IN-RJ"
  },
  "1791324": {
    "name": "india_sikkim",
    "country_code": "IN-SK"
  },
  "96905": {
    "name": "india_tamil_nadu",
    "country_code": "IN-TN"
  },
  "3250963": {
    "name": "india_telangana",
    "country_code": "IN-TG"
  },
  "2026458": {
    "name": "india_tripura",
    "country_code": "IN-TR"
  },
  "1942587": {
    "name": "india_uttar_pradesh",
    "country_code": "IN-UP"
  },
  "9987086": {
    "name": "india_uttarakhand",
    "country_code": "IN-UT"
  },
  "1960177": {
    "name": "india_west_bengal",
    "country_code": "IN-WB"
  },
  "2025855": {
    "name": "india_andaman_and_nicobar_islands",
    "country_code": "IN-AN"
  },
  "1942809": {
    "name": "india_chandigarh",
    "country_code": "IN-CH"
  },
  "1952530": {
    "name": "india_dadra_and_nagar_haveli_and_daman_and_diu",
    "country_code": "IN-DH"
  },
  "2027460": {
    "name": "india_lakshadweep",
    "country_code": "IN-LD"
  },
  "1942586": {
    "name": "india_national_capital_territory_of_delhi",
    "country_code": "IN-DL"
  },
  "107001": {
    "name": "india_puducherry",
    "country_code": "IN-PY"
  },
  "83184": {
    "name": "russia_belgorod_oblast",
    "country_code": "RU-BEL"
  },
  "81997": {
    "name": "russia_bryansk_oblast",
    "country_code": "RU-BRY"
  },
  "85617": {
    "name": "russia_ivanovo_oblast",
    "country_code": "RU-IVA"
  },
  "81995": {
    "name": "russia_kaluga_oblast",
    "country_code": "RU-KLU"
  },
  "85963": {
    "name": "russia_kostroma_oblast",
    "country_code": "RU-KOS"
  },
  "72223": {
    "name": "russia_kursk_oblast",
    "country_code": "RU-KRS"
  },
  "72169": {
    "name": "russia_lipetsk_oblast",
    "country_code": "RU-LIP"
  },
  "51490": {
    "name": "russia_moscow_oblast",
    "country_code": "RU-MOS"
  },
  "102269": {
    "name": "russia_moscow",
    "country_code": "RU-MOW"
  },
  "72224": {
    "name": "russia_oryol_oblast",
    "country_code": "RU-ORL"
  },
  "71950": {
    "name": "russia_ryazan_oblast",
    "country_code": "RU-RYA"
  },
  "81996": {
    "name": "russia_smolensk_oblast",
    "country_code": "RU-SMO"
  },
  "72180": {
    "name": "russia_tambov_oblast",
    "country_code": "RU-TAM"
  },
  "81993": {
    "name": "russia_tula_oblast",
    "country_code": "RU-TUL"
  },
  "2095259": {
    "name": "russia_tver_oblast",
    "country_code": "RU-TVE"
  },
  "72197": {
    "name": "russia_vladimir_oblast",
    "country_code": "RU-VLA"
  },
  "72181": {
    "name": "russia_voronezh_oblast",
    "country_code": "RU-VOR"
  },
  "81994": {
    "name": "russia_yaroslavl_oblast",
    "country_code": "RU-YAR"
  },
  "147166": {
    "name": "russia_amur_oblast",
    "country_code": "RU-AMU"
  },
  "151231": {
    "name": "russia_chukotka_autonomous_okrug",
    "country_code": "RU-CHU"
  },
  "147167": {
    "name": "russia_jewish_autonomous_oblast",
    "country_code": "RU-YEV"
  },
  "151233": {
    "name": "russia_kamchatka_krai",
    "country_code": "RU-KAM"
  },
  "151223": {
    "name": "russia_khabarovsk_krai",
    "country_code": "RU-KHA"
  },
  "151228": {
    "name": "russia_magadan_oblast",
    "country_code": "RU-MAG"
  },
  "151225": {
    "name": "russia_primorsky_krai",
    "country_code": "RU-PRI"
  },
  "151234": {
    "name": "russia_sakha_republic",
    "country_code": "RU-SA"
  },
  "394235": {
    "name": "russia_sakhalin_oblast",
    "country_code": "RU-SAK"
  },
  "109877": {
    "name": "russia_chechen_republic",
    "country_code": "RU-CE"
  },
  "109876": {
    "name": "russia_dagestan_republic",
    "country_code": "RU-DA"
  },
  "253252": {
    "name": "russia_ingushetia_republic",
    "country_code": "RU-IN"
  },
  "109879": {
    "name": "russia_kabardino_balkar_republic",
    "country_code": "RU-KB"
  },
  "109878": {
    "name": "russia_karachay_cherkess_republic",
    "country_code": "RU-KC"
  },
  "110032": {
    "name": "russia_north_ossetia_alania_republic",
    "country_code": "RU-SE"
  },
  "108081": {
    "name": "russia_stavropol_krai",
    "country_code": "RU-STA"
  },
  "140337": {
    "name": "russia_arkhangelsk_oblast",
    "country_code": "RU-ARK"
  },
  "103906": {
    "name": "russia_kaliningrad_oblast",
    "country_code": "RU-KGD"
  },
  "393980": {
    "name": "russia_karelia_republic",
    "country_code": "RU-KR"
  },
  "115136": {
    "name": "russia_komi_republic",
    "country_code": "RU-KO"
  },
  "176095": {
    "name": "russia_leningrad_oblast",
    "country_code": "RU-LEN"
  },
  "2099216": {
    "name": "russia_murmansk_oblast",
    "country_code": "RU-MUR"
  },
  "274048": {
    "name": "russia_nenets_autonomous_okrug",
    "country_code": "RU-NEN"
  },
  "89331": {
    "name": "russia_novgorod_oblast",
    "country_code": "RU-NGR"
  },
  "155262": {
    "name": "russia_pskov_oblast",
    "country_code": "RU-PSK"
  },
  "337422": {
    "name": "russia_saint_petersburg",
    "country_code": "RU-SPE"
  },
  "115106": {
    "name": "russia_vologda_oblast",
    "country_code": "RU-VLG"
  },
  "144764": {
    "name": "russia_altai_krai",
    "country_code": "RU-ALT"
  },
  "145194": {
    "name": "russia_altai_republic",
    "country_code": "RU-AL"
  },
  "145729": {
    "name": "russia_buryatia_republic",
    "country_code": "RU-BU"
  },
  "145454": {
    "name": "russia_irkutsk_oblast",
    "country_code": "RU-IRK"
  },
  "144763": {
    "name": "russia_kemerovo_oblast",
    "country_code": "RU-KEM"
  },
  "190911": {
    "name": "russia_khakassia_republic",
    "country_code": "RU-KK"
  },
  "190090": {
    "name": "russia_krasnoyarsk_krai",
    "country_code": "RU-KYA"
  },
  "140294": {
    "name": "russia_novosibirsk_oblast",
    "country_code": "RU-NVS"
  },
  "140292": {
    "name": "russia_omsk_oblast",
    "country_code": "RU-OMS"
  },
  "140295": {
    "name": "russia_tomsk_oblast",
    "country_code": "RU-TOM"
  },
  "145195": {
    "name": "russia_tuva_republic",
    "country_code": "RU-TY"
  },
  "145730": {
    "name": "russia_zabaykalsky_krai",
    "country_code": "RU-ZAB"
  },
  "3795586": {
    "name": "russia_crimea_republic",
    "country_code": "RU-CR"
  },
  "253256": {
    "name": "russia_adygea_republic",
    "country_code": "RU-AD"
  },
  "112819": {
    "name": "russia_astrakhan_oblast",
    "country_code": "RU-AST"
  },
  "108083": {
    "name": "russia_kalmykia_republic",
    "country_code": "RU-KL"
  },
  "108082": {
    "name": "russia_krasnodar_krai",
    "country_code": "RU-KDA"
  },
  "85606": {
    "name": "russia_rostov_oblast",
    "country_code": "RU-ROS"
  },
  "1574364": {
    "name": "russia_sevastopol",
    "country_code": "RU"
  },
  "77665": {
    "name": "russia_volgograd_oblast",
    "country_code": "RU-VGG"
  },
  "77687": {
    "name": "russia_chelyabinsk_oblast",
    "country_code": "RU-CHE"
  },
  "140296": {
    "name": "russia_khanty_mansi_autonomous_okrug",
    "country_code": "RU-KHM"
  },
  "140290": {
    "name": "russia_kurgan_oblast",
    "country_code": "RU-KGN"
  },
  "79379": {
    "name": "russia_sverdlovsk_oblast",
    "country_code": "RU-SVE"
  },
  "140291": {
    "name": "russia_tyumen_oblast",
    "country_code": "RU-TYU"
  },
  "191706": {
    "name": "russia_yamalo_nenets_autonomous_okrug",
    "country_code": "RU-YAN"
  },
  "77677": {
    "name": "russia_bashkortostan_republic",
    "country_code": "RU-BA"
  },
  "80513": {
    "name": "russia_chuvash_republic",
    "country_code": "RU-CU"
  },
  "115100": {
    "name": "russia_kirov_oblast",
    "country_code": "RU-KIR"
  },
  "115114": {
    "name": "russia_mari_el_republic",
    "country_code": "RU-ME"
  },
  "72196": {
    "name": "russia_mordovia_republic",
    "country_code": "RU-MO"
  },
  "72195": {
    "name": "russia_nizhny_novgorod_oblast",
    "country_code": "RU-NIZ"
  },
  "77669": {
    "name": "russia_orenburg_oblast",
    "country_code": "RU-ORE"
  },
  "72182": {
    "name": "russia_penza_oblast",
    "country_code": "RU-PNZ"
  },
  "115135": {
    "name": "russia_perm_krai",
    "country_code": "RU-PER"
  },
  "72194": {
    "name": "russia_samara_oblast",
    "country_code": "RU-SAM"
  },
  "72193": {
    "name": "russia_saratov_oblast",
    "country_code": "RU-SAR"
  },
  "79374": {
    "name": "russia_tatarstan_republic",
    "country_code": "RU-TA"
  },
  "115134": {
    "name": "russia_udmurt_republic",
    "country_code": "RU-UD"
  },
  "72192": {
    "name": "russia_ulyanovsk_oblast",
    "country_code": "RU-ULY"
  },
  "3795658": {
    "name": "japan_hokkaido",
    "country_code": "JP"
  },
  "1835900": {
    "name": "japan_tohoku",
    "country_code": "JP"
  },
  "1803923": {
    "name": "japan_kanto",
    "country_code": "JP"
  },
  "532759": {
    "name": "japan_chubu",
    "country_code": "JP"
  },
  "357113": {
    "name": "japan_kansai",
    "country_code": "JP"
  },
  "1842114": {
    "name": "japan_chugoku",
    "country_code": "JP"
  },
  "1847663": {
    "name": "japan_shikoku",
    "country_code": "JP"
  },
  "1842245": {
    "name": "japan_kyushu",
    "country_code": "JP"
  },
  "913011": {
    "name": "china_anhui",
    "country_code": "CN-34"
  },
  "553303": {
    "name": "china_fujian",
    "country_code": "CN-35"
  },
  "153314": {
    "name": "china_gansu",
    "country_code": "CN-62"
  },
  "911844": {
    "name": "china_guangdong",
    "country_code": "CN-44"
  },
  "286937": {
    "name": "china_guizhou",
    "country_code": "CN-52"
  },
  "2128285": {
    "name": "china_hainan",
    "country_code": "CN-46"
  },
  "912998": {
    "name": "china_hebei",
    "country_code": "CN-13"
  },
  "199073": {
    "name": "china_heilongjiang",
    "country_code": "CN-23"
  },
  "407492": {
    "name": "china_henan",
    "country_code": "CN-41"
  },
  "913106": {
    "name": "china_hubei",
    "country_code": "CN-42"
  },
  "913073": {
    "name": "china_hunan",
    "country_code": "CN-43"
  },
  "913012": {
    "name": "china_jiangsu",
    "country_code": "CN-32"
  },
  "913109": {
    "name": "china_jiangxi",
    "country_code": "CN-36"
  },
  "198590": {
    "name": "china_jilin",
    "country_code": "CN-22"
  },
  "912942": {
    "name": "china_liaoning",
    "country_code": "CN-21"
  },
  "153269": {
    "name": "china_qinghai",
    "country_code": "CN-63"
  },
  "913100": {
    "name": "china_shaanxi",
    "country_code": "CN-61"
  },
  "913006": {
    "name": "china_shandong",
    "country_code": "CN-37"
  },
  "913105": {
    "name": "china_shanxi",
    "country_code": "CN-14"
  },
  "913068": {
    "name": "china_sichuan",
    "country_code": "CN-51"
  },
  "913094": {
    "name": "china_yunnan",
    "country_code": "CN-53"
  },
  "553302": {
    "name": "china_zhejiang",
    "country_code": "CN-33"
  },
  "153292": {
    "name": "china_tibet",
    "country_code": "CN-54"
  },
  "153310": {
    "name": "china_xinjiang",
    "country_code": "CN-65"
  },
  "286342": {
    "name": "china_guangxi",
    "country_code": "CN-45"
  },
  "161349": {
    "name": "china_inner_mongolia",
    "country_code": "CN-15"
  },
  "913101": {
    "name": "china_ningxia",
    "country_code": "CN-64"
  },
  "912940": {
    "name": "china_beijing",
    "country_code": "CN-11"
  },
  "912999": {
    "name": "china_tianjin",
    "country_code": "CN-12"
  },
  "913067": {
    "name": "china_shanghai",
    "country_code": "CN-31"
  },
  "913069": {
    "name": "china_chongqing",
    "country_code": "CN-50"
  },
  "913110": {
    "name": "china_hong_kong",
    "country_code": "CN-91"
  },
  "1867188": {
    "name": "china_macau",
    "country_code": "CN-92"
  }
}